test.vcd
$date
	Sun Apr 16 23:32:54 2023
$end
$version
	Icarus Verilog
$end
$timescale
	1ps
$end
$scope module tb $end
$var reg 1 ! clk $end
$var reg 1 " rst $end
$scope module uut $end
$var wire 1 ! clk $end
$var wire 32 # inp1 [31:0] $end
$var wire 32 $ jr_addr [31:0] $end
$var wire 32 % rs_data [31:0] $end
$var wire 1 " rst $end
$var wire 32 & rt_data [31:0] $end
$var wire 5 ' shamt [4:0] $end
$var wire 32 ( nextPC [31:0] $end
$var wire 32 ) j_addr [31:0] $end
$var wire 32 * inp2 [31:0] $end
$var wire 32 + branch_addr [31:0] $end
$var wire 5 , WriteReg [4:0] $end
$var wire 32 - Result [31:0] $end
$var wire 1 . RegWrite_en $end
$var wire 32 / ReadData [31:0] $end
$var wire 32 0 PCplus1 [31:0] $end
$var wire 2 1 PCchoose [1:0] $end
$var wire 1 2 MemWrite $end
$var wire 1 3 MemToReg $end
$var wire 1 4 Link $end
$var wire 32 5 Instr [31:0] $end
$var wire 32 6 Imm [31:0] $end
$var wire 1 7 ALUzero $end
$var wire 1 8 ALUsrc $end
$var wire 32 9 ALUout [31:0] $end
$var wire 4 : ALUctrl [3:0] $end
$var reg 32 ; PC [31:0] $end
$var reg 32 < WriteText [31:0] $end
$var reg 1 = start $end
$var reg 1 > w_enable $end
$scope module PC_next_decider $end
$var wire 32 ? a [31:0] $end
$var wire 32 @ b [31:0] $end
$var wire 32 A c [31:0] $end
$var wire 32 B d [31:0] $end
$var wire 1 7 zero $end
$var wire 2 C s [1:0] $end
$var reg 32 D out [31:0] $end
$upscope $end
$scope module Result_decider $end
$var wire 1 3 select $end
$var wire 32 E out [31:0] $end
$var wire 32 F inp2 [31:0] $end
$var wire 32 G inp1 [31:0] $end
$upscope $end
$scope module alu $end
$var wire 32 H inp1 [31:0] $end
$var wire 5 I shamt [4:0] $end
$var wire 32 J inp2 [31:0] $end
$var wire 1 7 ALUzero $end
$var wire 4 K ALUctrl [3:0] $end
$var reg 32 L ALUOut [31:0] $end
$upscope $end
$scope module in2_decider $end
$var wire 32 M inp1 [31:0] $end
$var wire 1 8 select $end
$var wire 32 N out [31:0] $end
$var wire 32 O inp2 [31:0] $end
$upscope $end
$scope module instruction $end
$var wire 1 ! clk $end
$var wire 32 P data_in [31:0] $end
$var wire 32 Q data_out [31:0] $end
$var wire 32 R read_addr [31:0] $end
$var wire 1 " rst $end
$var wire 32 S write_addr [31:0] $end
$var wire 1 > write_en $end
$upscope $end
$scope module unit $end
$var wire 32 T Instr [31:0] $end
$var wire 32 U unsigned_im [31:0] $end
$var wire 32 V signed_im [31:0] $end
$var wire 5 W rt [4:0] $end
$var wire 5 X rs [4:0] $end
$var wire 5 Y rd [4:0] $end
$var parameter 1 Z IFORMAT $end
$var parameter 1 [ RFORMAT $end
$var parameter 6 \ SIG_ADD $end
$var parameter 6 ] SIG_ADDU $end
$var parameter 6 ^ SIG_AND $end
$var parameter 6 _ SIG_OR $end
$var parameter 6 ` SIG_SLL $end
$var parameter 6 a SIG_SLT $end
$var parameter 6 b SIG_SRL $end
$var parameter 6 c SIG_SUB $end
$var parameter 6 d SIG_SUBU $end
$var reg 4 e ALUctrl [3:0] $end
$var reg 1 8 ALUsrc $end
$var reg 32 f Imm [31:0] $end
$var reg 1 4 Link $end
$var reg 1 3 MemToReg $end
$var reg 1 2 MemWrite $end
$var reg 2 g PCchoose [1:0] $end
$var reg 1 . RegWrite_en $end
$var reg 5 h WriteReg [4:0] $end
$upscope $end
$scope module var $end
$var wire 1 ! clk $end
$var wire 32 i data_in [31:0] $end
$var wire 32 j data_out [31:0] $end
$var wire 32 k read_addr [31:0] $end
$var wire 1 " rst $end
$var wire 32 l write_addr [31:0] $end
$var wire 1 2 write_en $end
$upscope $end
$upscope $end
$upscope $end
$enddefinitions $end
$comment Show the parameter values. $end
$dumpall
b100011 d
b100010 c
b10 b
b101010 a
b0 `
b100101 _
b100100 ^
b100001 ]
b100000 \
0[
1Z
$end
#0
$dumpvars
b0 l
b0 k
b1100100 j
b0 i
b10000 h
b0 g
b11111111111111111000000000100000 f
b0 e
b10000 Y
b100 X
b0 W
b11111111111111111000000000100000 V
b1000000000100000 U
b100000001000000000100000 T
b0 S
b0 R
b100000001000000000100000 Q
b0 P
b11111111111111111000000000100000 O
b0 N
b0 M
b0 L
b0 K
b0 J
b0 I
b0 H
b0 G
b1100100 F
b0 E
b1 D
b0 C
b100000001000000000100000 B
b0 A
b11111111111111111000000000100000 @
b1 ?
0>
0=
b0 <
b0 ;
b0 :
b0 9
08
17
b11111111111111111000000000100000 6
b100000001000000000100000 5
04
03
02
b0 1
b1 0
b1100100 /
1.
b0 -
b10000 ,
b11111111111111111000000000100000 +
b0 *
b100000001000000000100000 )
b1 (
b0 '
b0 &
b0 %
b0 $
b0 #
1"
0!
$end
#1000
0"
#5000
1=
1!
#10000
0!
#15000
b10 (
b10 D
bx /
bx F
bx j
b101 -
b101 E
07
b101 9
b101 G
b101 L
b101 k
b101 l
b11111111111111111000100000100000 6
b11111111111111111000100000100000 O
b11111111111111111000100000100000 f
b10001 ,
b10001 h
b11111111111111111000100000100000 V
b1000100000100000 U
b101 X
b10001 Y
b101 #
b101 H
b101 $
b101 A
b101 %
b101000001000100000100000 )
b101000001000100000100000 B
b101000001000100000100000 5
b101000001000100000100000 Q
b101000001000100000100000 T
b10 0
b10 ?
b11111111111111111000100000100001 +
b11111111111111111000100000100001 @
b1 ;
b1 R
1!
#20000
0!
#25000
b11 (
b11 D
b1001 /
b1001 F
b1001 j
b100 -
b100 E
b100 9
b100 G
b100 L
b100 k
b100 l
b11111111111111111111111111111111 *
b11111111111111111111111111111111 J
b11111111111111111111111111111111 N
b11111111111111111111111111111111 6
b11111111111111111111111111111111 O
b11111111111111111111111111111111 f
18
b10010 ,
b10010 h
b11111111111111111111111111111111 V
b1111111111111111 U
b10001 X
b10010 W
b11111 Y
b11111 '
b11111 I
bx &
bx M
bx i
b10001100101111111111111111 )
b10001100101111111111111111 B
b100010001100101111111111111111 5
b100010001100101111111111111111 Q
b100010001100101111111111111111 T
b11 0
b11 ?
b1 +
b1 @
b10 ;
b10 R
1!
#30000
0!
#35000
b100 (
b100 D
b11101 /
b11101 F
b11101 j
b1 -
b1 E
b0 *
b0 J
b0 N
b1 9
b1 G
b1 L
b1 k
b1 l
b111 :
b111 K
b111 e
b1101 6
b1101 O
b1101 f
0.
08
b0 ,
b0 h
b1 1
b1 C
b1 g
b1101 V
b1101 U
b10010 X
b0 W
b0 Y
b0 '
b0 I
b100 #
b100 H
b100 $
b100 A
b100 %
b10010000000000000000001101 )
b10010000000000000000001101 B
b1100010010000000000000000001101 5
b1100010010000000000000000001101 Q
b1100010010000000000000000001101 T
b100 0
b100 ?
b10000 +
b10000 @
b11 ;
b11 R
b0 &
b0 M
b0 i
1!
#40000
0!
#45000
b101 (
b101 D
b1100100 /
b1100100 F
b1100100 j
b0 -
b0 E
17
b0 9
b0 G
b0 L
b0 k
b0 l
b0 :
b0 K
b0 e
b11111111111111111001100000100000 6
b11111111111111111001100000100000 O
b11111111111111111001100000100000 f
1.
b10011 ,
b10011 h
b0 1
b0 C
b0 g
b11111111111111111001100000100000 V
b1001100000100000 U
b0 X
b10011 Y
b0 #
b0 H
b0 $
b0 A
b0 %
b1001100000100000 )
b1001100000100000 B
b1001100000100000 5
b1001100000100000 Q
b1001100000100000 T
b101 0
b101 ?
b11111111111111111001100000100100 +
b11111111111111111001100000100100 @
b100 ;
b100 R
1!
#50000
0!
#55000
b110 (
b110 D
b11101 /
b11101 F
b11101 j
b1 -
b1 E
07
b1 9
b1 G
b1 L
b1 k
b1 l
b100 *
b100 J
b100 N
b111 :
b111 K
b111 e
b1001 6
b1001 O
b1001 f
0.
b10010 ,
b10010 h
b1 1
b1 C
b1 g
b1001 V
b1001 U
b10011 X
b10010 W
b0 Y
b100 &
b100 M
b100 i
b10011100100000000000001001 )
b10011100100000000000001001 B
b1100010011100100000000000001001 5
b1100010011100100000000000001001 Q
b1100010011100100000000000001001 T
b110 0
b110 ?
b1110 +
b1110 @
b101 ;
b101 R
1!
#60000
0!
#65000
b111 (
b111 D
b1100100 /
b1100100 F
b1100100 j
b0 -
b0 E
17
b0 9
b0 G
b0 L
b0 k
b0 l
b0 *
b0 J
b0 N
b0 :
b0 K
b0 e
b100000000100000 6
b100000000100000 O
b100000000100000 f
1.
b1000 ,
b1000 h
b0 1
b0 C
b0 g
b100000000100000 V
b100000000100000 U
b10000 X
b10011 W
b1000 Y
b0 &
b0 M
b0 i
b10000100110100000000100000 )
b10000100110100000000100000 B
b10000100110100000000100000 5
b10000100110100000000100000 Q
b10000100110100000000100000 T
b111 0
b111 ?
b100000000100110 +
b100000000100110 @
b110 ;
b110 R
1!
#70000
0!
#75000
b1000 (
b1000 D
b1100100 -
b1100100 E
b0 6
b0 O
b0 f
13
18
b10100 ,
b10100 h
b0 V
b0 U
b1000 X
b10100 W
b0 Y
bx &
bx M
bx i
b1000101000000000000000000 )
b1000101000000000000000000 B
b10001101000101000000000000000000 5
b10001101000101000000000000000000 Q
b10001101000101000000000000000000 T
b1000 0
b1000 ?
b111 +
b111 @
b111 ;
b111 R
1!
#80000
0!
#85000
b1001 (
b1001 D
b11101 -
b11101 E
b11101 /
b11101 F
b11101 j
07
b1 9
b1 G
b1 L
b1 k
b1 l
b1 *
b1 J
b1 N
b1 6
b1 O
b1 f
b10101 ,
b10101 h
b1 V
b1 U
b10101 W
b1000101010000000000000001 )
b1000101010000000000000001 B
b10001101000101010000000000000001 5
b10001101000101010000000000000001 Q
b10001101000101010000000000000001 T
b1001 0
b1001 ?
b1001 +
b1001 @
b1000 ;
b1000 R
bx &
bx M
bx i
1!
#90000
0!
#95000
b1010 (
b1010 D
b1 -
b1 E
b11101 *
b11101 J
b11101 N
b1100 :
b1100 K
b1100 e
b11 6
b11 O
b11 f
0.
03
08
b1 1
b1 C
b1 g
b11 V
b11 U
b10100 X
b1100100 #
b1100100 H
b1100100 $
b1100100 A
b1100100 %
b10100101010000000000000011 )
b10100101010000000000000011 B
b1111010100101010000000000000011 5
b1111010100101010000000000000011 Q
b1111010100101010000000000000011 T
b1010 0
b1010 ?
b1100 +
b1100 @
b1001 ;
b1001 R
b11101 &
b11101 M
b11101 i
1!
#100000
0!
#105000
b1011 (
b1011 D
b11101 /
b11101 F
b11101 j
b1 -
b1 E
b1 *
b1 J
b1 N
b1 9
b1 G
b1 L
b1 k
b1 l
b1 6
b1 O
b1 f
12
b0 :
b0 K
b0 e
18
b10100 ,
b10100 h
b0 1
b0 C
b0 g
b1 V
b1 U
b1000 X
b10100 W
b1100100 &
b1100100 M
b1100100 i
b0 #
b0 H
b0 $
b0 A
b0 %
b1000101000000000000000001 )
b1000101000000000000000001 B
b10101101000101000000000000000001 5
b10101101000101000000000000000001 Q
b10101101000101000000000000000001 T
b1011 0
b1011 ?
b1011 +
b1011 @
b1010 ;
b1010 R
1!
#110000
0!
#115000
b1100 (
b1100 D
b0 -
b0 E
17
b0 9
b0 G
b0 L
b0 k
b0 l
b0 *
b0 J
b0 N
b0 6
b0 O
b0 f
b10101 ,
b10101 h
b0 V
b0 U
b10101 W
b11101 &
b11101 M
b11101 i
b1000101010000000000000000 )
b1000101010000000000000000 B
b10101101000101010000000000000000 5
b10101101000101010000000000000000 Q
b10101101000101010000000000000000 T
b1100 0
b1100 ?
b1011 +
b1011 @
b1011 ;
b1011 R
b1100100 /
b1100100 F
b1100100 j
1!
#120000
0!
#125000
b1101 (
b1101 D
b1 -
b1 E
07
b1 9
b1 G
b1 L
b1 k
b1 l
b1 *
b1 J
b1 N
b1 6
b1 O
b1 f
1.
02
b10011 ,
b10011 h
b1 V
b1 U
b10011 X
b10011 W
b0 &
b0 M
b0 i
b10011100110000000000000001 )
b10011100110000000000000001 B
b100010011100110000000000000001 5
b100010011100110000000000000001 Q
b100010011100110000000000000001 T
b1100100 /
b1100100 F
b1100100 j
b1101 0
b1101 ?
b1101 +
b1101 @
b1100 ;
b1100 R
1!
#130000
0!
#135000
b101 (
b101 D
b101 *
b101 J
b101 N
b101 6
b101 O
b101 f
0.
b1111 :
b1111 K
b1111 e
b0 ,
b0 h
b11 1
b11 C
b11 g
b101 V
b101 U
b0 X
b0 W
b101 )
b101 B
b10010 /
b10010 F
b10010 j
b10 -
b10 E
b1000000000000000000000000101 5
b1000000000000000000000000101 Q
b1000000000000000000000000101 T
b10 9
b10 G
b10 L
b10 k
b10 l
b1110 0
b1110 ?
b10010 +
b10010 @
b1101 ;
b1101 R
b0 #
b0 H
b0 $
b0 A
b0 %
b0 &
b0 M
b0 i
1!
#140000
0!
#145000
b110 (
b110 D
b1100100 /
b1100100 F
b1100100 j
b1 -
b1 E
b100 *
b100 J
b100 N
b1 9
b1 G
b1 L
b1 k
b1 l
b1001 6
b1001 O
b1001 f
b111 :
b111 K
b111 e
08
b10010 ,
b10010 h
b1 1
b1 C
b1 g
b1001 V
b1001 U
b10011 X
b10010 W
b100 &
b100 M
b100 i
b1 #
b1 H
b1 $
b1 A
b1 %
b10011100100000000000001001 )
b10011100100000000000001001 B
b1100010011100100000000000001001 5
b1100010011100100000000000001001 Q
b1100010011100100000000000001001 T
b110 0
b110 ?
b1110 +
b1110 @
b101 ;
b101 R
1!
#150000
0!
#155000
b111 (
b111 D
b1100100 /
b1100100 F
b1100100 j
b1 -
b1 E
b1 *
b1 J
b1 N
b1 9
b1 G
b1 L
b1 k
b1 l
b0 :
b0 K
b0 e
b100000000100000 6
b100000000100000 O
b100000000100000 f
1.
b1000 ,
b1000 h
b0 1
b0 C
b0 g
b100000000100000 V
b100000000100000 U
b10000 X
b10011 W
b1000 Y
b1 &
b1 M
b1 i
b0 #
b0 H
b0 $
b0 A
b0 %
b10000100110100000000100000 )
b10000100110100000000100000 B
b10000100110100000000100000 5
b10000100110100000000100000 Q
b10000100110100000000100000 T
b111 0
b111 ?
b100000000100110 +
b100000000100110 @
b110 ;
b110 R
1!
#160000
0!
#165000
b1000 (
b1000 D
b1100100 /
b1100100 F
b1100100 j
b1100100 -
b1100100 E
b0 *
b0 J
b0 N
b1 9
b1 G
b1 L
b1 k
b1 l
b0 6
b0 O
b0 f
13
18
b10100 ,
b10100 h
b0 V
b0 U
b1000 X
b10100 W
b0 Y
b1100100 &
b1100100 M
b1100100 i
b1 #
b1 H
b1 $
b1 A
b1 %
b1000101000000000000000000 )
b1000101000000000000000000 B
b10001101000101000000000000000000 5
b10001101000101000000000000000000 Q
b10001101000101000000000000000000 T
b1000 0
b1000 ?
b111 +
b111 @
b111 ;
b111 R
1!
#170000
0!
#175000
b1001 (
b1001 D
b10010 -
b10010 E
b10010 /
b10010 F
b10010 j
b10 9
b10 G
b10 L
b10 k
b10 l
b1 *
b1 J
b1 N
b1 6
b1 O
b1 f
b10101 ,
b10101 h
b1 V
b1 U
b10101 W
b11101 &
b11101 M
b11101 i
b1000101010000000000000001 )
b1000101010000000000000001 B
b10001101000101010000000000000001 5
b10001101000101010000000000000001 Q
b10001101000101010000000000000001 T
b1001 0
b1001 ?
b1001 +
b1001 @
b1000 ;
b1000 R
1!
#180000
0!
#185000
b1010 (
b1010 D
b1100100 /
b1100100 F
b1100100 j
b1 -
b1 E
b10010 *
b10010 J
b10010 N
b1 9
b1 G
b1 L
b1 k
b1 l
b1100 :
b1100 K
b1100 e
b11 6
b11 O
b11 f
0.
03
08
b1 1
b1 C
b1 g
b11 V
b11 U
b10100 X
b1100100 #
b1100100 H
b1100100 $
b1100100 A
b1100100 %
b10100101010000000000000011 )
b10100101010000000000000011 B
b1111010100101010000000000000011 5
b1111010100101010000000000000011 Q
b1111010100101010000000000000011 T
b1010 0
b1010 ?
b1100 +
b1100 @
b1001 ;
b1001 R
b10010 &
b10010 M
b10010 i
1!
#190000
0!
#195000
b1011 (
b1011 D
b10010 /
b10010 F
b10010 j
b10 -
b10 E
b1 *
b1 J
b1 N
b10 9
b10 G
b10 L
b10 k
b10 l
b1 6
b1 O
b1 f
12
b0 :
b0 K
b0 e
18
b10100 ,
b10100 h
b0 1
b0 C
b0 g
b1 V
b1 U
b1000 X
b10100 W
b1100100 &
b1100100 M
b1100100 i
b1 #
b1 H
b1 $
b1 A
b1 %
b1000101000000000000000001 )
b1000101000000000000000001 B
b10101101000101000000000000000001 5
b10101101000101000000000000000001 Q
b10101101000101000000000000000001 T
b1011 0
b1011 ?
b1011 +
b1011 @
b1010 ;
b1010 R
1!
#200000
0!
#205000
b1100 (
b1100 D
b1 -
b1 E
b1 9
b1 G
b1 L
b1 k
b1 l
b0 *
b0 J
b0 N
b0 6
b0 O
b0 f
b10101 ,
b10101 h
b0 V
b0 U
b10101 W
b10010 &
b10010 M
b10010 i
b1000101010000000000000000 )
b1000101010000000000000000 B
b10101101000101010000000000000000 5
b10101101000101010000000000000000 Q
b10101101000101010000000000000000 T
b1100100 /
b1100100 F
b1100100 j
b1100 0
b1100 ?
b1011 +
b1011 @
b1011 ;
b1011 R
1!
#210000
0!
#215000
b1101 (
b1101 D
b10 -
b10 E
b10 9
b10 G
b10 L
b10 k
b10 l
b1 *
b1 J
b1 N
b1 6
b1 O
b1 f
1.
02
b10011 ,
b10011 h
b1 V
b1 U
b10011 X
b10011 W
b1 &
b1 M
b1 i
b10011100110000000000000001 )
b10011100110000000000000001 B
b100010011100110000000000000001 5
b100010011100110000000000000001 Q
b100010011100110000000000000001 T
b1101 0
b1101 ?
b1101 +
b1101 @
b1100 ;
b1100 R
b1100100 /
b1100100 F
b1100100 j
1!
#220000
0!
#225000
b101 (
b101 D
b101 *
b101 J
b101 N
b101 6
b101 O
b101 f
0.
b1111 :
b1111 K
b1111 e
b0 ,
b0 h
b11 1
b11 C
b11 g
b101 V
b101 U
b0 X
b0 W
b101 )
b101 B
b1001100 /
b1001100 F
b1001100 j
b11 -
b11 E
b1000000000000000000000000101 5
b1000000000000000000000000101 Q
b1000000000000000000000000101 T
b11 9
b11 G
b11 L
b11 k
b11 l
b1110 0
b1110 ?
b10010 +
b10010 @
b1101 ;
b1101 R
b0 #
b0 H
b0 $
b0 A
b0 %
b0 &
b0 M
b0 i
1!
#230000
0!
#235000
b110 (
b110 D
b10010 /
b10010 F
b10010 j
b1 -
b1 E
b100 *
b100 J
b100 N
b1 9
b1 G
b1 L
b1 k
b1 l
b1001 6
b1001 O
b1001 f
b111 :
b111 K
b111 e
08
b10010 ,
b10010 h
b1 1
b1 C
b1 g
b1001 V
b1001 U
b10011 X
b10010 W
b100 &
b100 M
b100 i
b10 #
b10 H
b10 $
b10 A
b10 %
b10011100100000000000001001 )
b10011100100000000000001001 B
b1100010011100100000000000001001 5
b1100010011100100000000000001001 Q
b1100010011100100000000000001001 T
b110 0
b110 ?
b1110 +
b1110 @
b101 ;
b101 R
1!
#240000
0!
#245000
b111 (
b111 D
b1100100 /
b1100100 F
b1100100 j
b10 -
b10 E
b10 *
b10 J
b10 N
b10 9
b10 G
b10 L
b10 k
b10 l
b0 :
b0 K
b0 e
b100000000100000 6
b100000000100000 O
b100000000100000 f
1.
b1000 ,
b1000 h
b0 1
b0 C
b0 g
b100000000100000 V
b100000000100000 U
b10000 X
b10011 W
b1000 Y
b10 &
b10 M
b10 i
b0 #
b0 H
b0 $
b0 A
b0 %
b10000100110100000000100000 )
b10000100110100000000100000 B
b10000100110100000000100000 5
b10000100110100000000100000 Q
b10000100110100000000100000 T
b111 0
b111 ?
b100000000100110 +
b100000000100110 @
b110 ;
b110 R
1!
#250000
0!
#255000
b1000 (
b1000 D
b1100100 /
b1100100 F
b1100100 j
b1100100 -
b1100100 E
b0 *
b0 J
b0 N
b10 9
b10 G
b10 L
b10 k
b10 l
b0 6
b0 O
b0 f
13
18
b10100 ,
b10100 h
b0 V
b0 U
b1000 X
b10100 W
b0 Y
b1100100 &
b1100100 M
b1100100 i
b10 #
b10 H
b10 $
b10 A
b10 %
b1000101000000000000000000 )
b1000101000000000000000000 B
b10001101000101000000000000000000 5
b10001101000101000000000000000000 Q
b10001101000101000000000000000000 T
b1000 0
b1000 ?
b111 +
b111 @
b111 ;
b111 R
1!
#260000
0!
#265000
b1001 (
b1001 D
b1001100 -
b1001100 E
b1001100 /
b1001100 F
b1001100 j
b11 9
b11 G
b11 L
b11 k
b11 l
b1 *
b1 J
b1 N
b1 6
b1 O
b1 f
b10101 ,
b10101 h
b1 V
b1 U
b10101 W
b10010 &
b10010 M
b10010 i
b1000101010000000000000001 )
b1000101010000000000000001 B
b10001101000101010000000000000001 5
b10001101000101010000000000000001 Q
b10001101000101010000000000000001 T
b1001 0
b1001 ?
b1001 +
b1001 @
b1000 ;
b1000 R
1!
#270000
0!
#275000
b1010 (
b1010 D
b10010 /
b10010 F
b10010 j
b1 -
b1 E
b1001100 *
b1001100 J
b1001100 N
b1 9
b1 G
b1 L
b1 k
b1 l
b1100 :
b1100 K
b1100 e
b11 6
b11 O
b11 f
0.
03
08
b1 1
b1 C
b1 g
b11 V
b11 U
b10100 X
b1100100 #
b1100100 H
b1100100 $
b1100100 A
b1100100 %
b10100101010000000000000011 )
b10100101010000000000000011 B
b1111010100101010000000000000011 5
b1111010100101010000000000000011 Q
b1111010100101010000000000000011 T
b1010 0
b1010 ?
b1100 +
b1100 @
b1001 ;
b1001 R
b1001100 &
b1001100 M
b1001100 i
1!
#280000
0!
#285000
b1011 (
b1011 D
b1001100 /
b1001100 F
b1001100 j
b11 -
b11 E
b1 *
b1 J
b1 N
b11 9
b11 G
b11 L
b11 k
b11 l
b1 6
b1 O
b1 f
12
b0 :
b0 K
b0 e
18
b10100 ,
b10100 h
b0 1
b0 C
b0 g
b1 V
b1 U
b1000 X
b10100 W
b1100100 &
b1100100 M
b1100100 i
b10 #
b10 H
b10 $
b10 A
b10 %
b1000101000000000000000001 )
b1000101000000000000000001 B
b10101101000101000000000000000001 5
b10101101000101000000000000000001 Q
b10101101000101000000000000000001 T
b1011 0
b1011 ?
b1011 +
b1011 @
b1010 ;
b1010 R
1!
#290000
0!
#295000
b1100 (
b1100 D
b10 -
b10 E
b10 9
b10 G
b10 L
b10 k
b10 l
b0 *
b0 J
b0 N
b0 6
b0 O
b0 f
b10101 ,
b10101 h
b0 V
b0 U
b10101 W
b1001100 &
b1001100 M
b1001100 i
b1000101010000000000000000 )
b1000101010000000000000000 B
b10101101000101010000000000000000 5
b10101101000101010000000000000000 Q
b10101101000101010000000000000000 T
b1100 0
b1100 ?
b1011 +
b1011 @
b1011 ;
b1011 R
b1100100 /
b1100100 F
b1100100 j
1!
#300000
0!
#305000
b1101 (
b1101 D
b11 -
b11 E
b11 9
b11 G
b11 L
b11 k
b11 l
b1 *
b1 J
b1 N
b1 6
b1 O
b1 f
1.
02
b10011 ,
b10011 h
b1 V
b1 U
b10011 X
b10011 W
b10 &
b10 M
b10 i
b10011100110000000000000001 )
b10011100110000000000000001 B
b100010011100110000000000000001 5
b100010011100110000000000000001 Q
b100010011100110000000000000001 T
b1100100 /
b1100100 F
b1100100 j
b1101 0
b1101 ?
b1101 +
b1101 @
b1100 ;
b1100 R
1!
#310000
0!
#315000
b101 (
b101 D
b101 *
b101 J
b101 N
b101 6
b101 O
b101 f
0.
b1111 :
b1111 K
b1111 e
b0 ,
b0 h
b11 1
b11 C
b11 g
b101 V
b101 U
b0 X
b0 W
b101 )
b101 B
b1001 /
b1001 F
b1001 j
b100 -
b100 E
b1000000000000000000000000101 5
b1000000000000000000000000101 Q
b1000000000000000000000000101 T
b100 9
b100 G
b100 L
b100 k
b100 l
b1110 0
b1110 ?
b10010 +
b10010 @
b1101 ;
b1101 R
b0 #
b0 H
b0 $
b0 A
b0 %
b0 &
b0 M
b0 i
1!
#320000
0!
#325000
b110 (
b110 D
b10010 /
b10010 F
b10010 j
b1 -
b1 E
b100 *
b100 J
b100 N
b1 9
b1 G
b1 L
b1 k
b1 l
b1001 6
b1001 O
b1001 f
b111 :
b111 K
b111 e
08
b10010 ,
b10010 h
b1 1
b1 C
b1 g
b1001 V
b1001 U
b10011 X
b10010 W
b100 &
b100 M
b100 i
b11 #
b11 H
b11 $
b11 A
b11 %
b10011100100000000000001001 )
b10011100100000000000001001 B
b1100010011100100000000000001001 5
b1100010011100100000000000001001 Q
b1100010011100100000000000001001 T
b110 0
b110 ?
b1110 +
b1110 @
b101 ;
b101 R
1!
#330000
0!
#335000
b111 (
b111 D
b1100100 /
b1100100 F
b1100100 j
b11 -
b11 E
b11 *
b11 J
b11 N
b11 9
b11 G
b11 L
b11 k
b11 l
b0 :
b0 K
b0 e
b100000000100000 6
b100000000100000 O
b100000000100000 f
1.
b1000 ,
b1000 h
b0 1
b0 C
b0 g
b100000000100000 V
b100000000100000 U
b10000 X
b10011 W
b1000 Y
b11 &
b11 M
b11 i
b0 #
b0 H
b0 $
b0 A
b0 %
b10000100110100000000100000 )
b10000100110100000000100000 B
b10000100110100000000100000 5
b10000100110100000000100000 Q
b10000100110100000000100000 T
b111 0
b111 ?
b100000000100110 +
b100000000100110 @
b110 ;
b110 R
1!
#340000
0!
#345000
b1000 (
b1000 D
b1100100 /
b1100100 F
b1100100 j
b1100100 -
b1100100 E
b0 *
b0 J
b0 N
b11 9
b11 G
b11 L
b11 k
b11 l
b0 6
b0 O
b0 f
13
18
b10100 ,
b10100 h
b0 V
b0 U
b1000 X
b10100 W
b0 Y
b1100100 &
b1100100 M
b1100100 i
b11 #
b11 H
b11 $
b11 A
b11 %
b1000101000000000000000000 )
b1000101000000000000000000 B
b10001101000101000000000000000000 5
b10001101000101000000000000000000 Q
b10001101000101000000000000000000 T
b1000 0
b1000 ?
b111 +
b111 @
b111 ;
b111 R
1!
#350000
0!
#355000
b1001 (
b1001 D
b1001 -
b1001 E
b1001 /
b1001 F
b1001 j
b100 9
b100 G
b100 L
b100 k
b100 l
b1 *
b1 J
b1 N
b1 6
b1 O
b1 f
b10101 ,
b10101 h
b1 V
b1 U
b10101 W
b1001100 &
b1001100 M
b1001100 i
b1000101010000000000000001 )
b1000101010000000000000001 B
b10001101000101010000000000000001 5
b10001101000101010000000000000001 Q
b10001101000101010000000000000001 T
b1001 0
b1001 ?
b1001 +
b1001 @
b1000 ;
b1000 R
1!
#360000
0!
#365000
b1010 (
b1010 D
b10010 /
b10010 F
b10010 j
b1 -
b1 E
b1001 *
b1001 J
b1001 N
b1 9
b1 G
b1 L
b1 k
b1 l
b1100 :
b1100 K
b1100 e
b11 6
b11 O
b11 f
0.
03
08
b1 1
b1 C
b1 g
b11 V
b11 U
b10100 X
b1100100 #
b1100100 H
b1100100 $
b1100100 A
b1100100 %
b10100101010000000000000011 )
b10100101010000000000000011 B
b1111010100101010000000000000011 5
b1111010100101010000000000000011 Q
b1111010100101010000000000000011 T
b1010 0
b1010 ?
b1100 +
b1100 @
b1001 ;
b1001 R
b1001 &
b1001 M
b1001 i
1!
#370000
0!
#375000
b1011 (
b1011 D
b1001 /
b1001 F
b1001 j
b100 -
b100 E
b1 *
b1 J
b1 N
b100 9
b100 G
b100 L
b100 k
b100 l
b1 6
b1 O
b1 f
12
b0 :
b0 K
b0 e
18
b10100 ,
b10100 h
b0 1
b0 C
b0 g
b1 V
b1 U
b1000 X
b10100 W
b1100100 &
b1100100 M
b1100100 i
b11 #
b11 H
b11 $
b11 A
b11 %
b1000101000000000000000001 )
b1000101000000000000000001 B
b10101101000101000000000000000001 5
b10101101000101000000000000000001 Q
b10101101000101000000000000000001 T
b1011 0
b1011 ?
b1011 +
b1011 @
b1010 ;
b1010 R
1!
#380000
0!
#385000
b1100 (
b1100 D
b11 -
b11 E
b11 9
b11 G
b11 L
b11 k
b11 l
b0 *
b0 J
b0 N
b0 6
b0 O
b0 f
b10101 ,
b10101 h
b0 V
b0 U
b10101 W
b1001 &
b1001 M
b1001 i
b1000101010000000000000000 )
b1000101010000000000000000 B
b10101101000101010000000000000000 5
b10101101000101010000000000000000 Q
b10101101000101010000000000000000 T
b1100100 /
b1100100 F
b1100100 j
b1100 0
b1100 ?
b1011 +
b1011 @
b1011 ;
b1011 R
1!
#390000
0!
#395000
b1101 (
b1101 D
b100 -
b100 E
b100 9
b100 G
b100 L
b100 k
b100 l
b1 *
b1 J
b1 N
b1 6
b1 O
b1 f
1.
02
b10011 ,
b10011 h
b1 V
b1 U
b10011 X
b10011 W
b11 &
b11 M
b11 i
b10011100110000000000000001 )
b10011100110000000000000001 B
b100010011100110000000000000001 5
b100010011100110000000000000001 Q
b100010011100110000000000000001 T
b1101 0
b1101 ?
b1101 +
b1101 @
b1100 ;
b1100 R
b1100100 /
b1100100 F
b1100100 j
1!
#400000
0!
#405000
b101 (
b101 D
b101 *
b101 J
b101 N
b101 6
b101 O
b101 f
0.
b1111 :
b1111 K
b1111 e
b0 ,
b0 h
b11 1
b11 C
b11 g
b101 V
b101 U
b0 X
b0 W
b101 )
b101 B
bx /
bx F
bx j
b101 -
b101 E
b1000000000000000000000000101 5
b1000000000000000000000000101 Q
b1000000000000000000000000101 T
b101 9
b101 G
b101 L
b101 k
b101 l
b1110 0
b1110 ?
b10010 +
b10010 @
b1101 ;
b1101 R
b0 #
b0 H
b0 $
b0 A
b0 %
b0 &
b0 M
b0 i
1!
#410000
0!
